SOCIOL496
…
[1] 83818

mean(Clean_main$CTL) #1.880623

[1] 1.883578

sd(Clean_main$CTL) #0.2349638

[1] 0.2353724

Clean_main |>
  group_by(Country) |>
  summarise(count = n())

# A tibble: 44 × 2
   Country   count
   <chr>     <int>
 1 Argentina   962
 2 Armenia    2695
 3 Australia  1774
 4 Austria    1588
 5 Bosnia     1662
 6 Brazil     1677
 7 Canada     4018
 8 Chile       971
 9 China      3023
10 Colombia   1520
# ℹ 34 more rows
…
# A tibble: 2 × 2
# Rowwise: 
  Gender     n
  <chr>  <int>
1 0      38630
2 1      45188

Clean_main |>
  group_by(Country, Gender) |>
  summarise(count = n())

`summarise()` has grouped output by 'Country'. You can override using the
`.groups` argument.

# A tibble: 88 × 3
# Groups:   Country [44]
   Country   Gender count
   <chr>     <chr>  <int>
 1 Argentina 0        464
 2 Argentina 1        498
 3 Armenia   0       1055
 4 Armenia   1       1640
 5 Australia 0        698
 6 Australia 1       1076
 7 Austria   0        720
 8 Austria   1        868
 9 Bosnia    0        724
10 Bosnia    1        938
# ℹ 78 more rows

Clean_main |>
  group_by(Country, Gender) |>
  summarise(count = n()) |>
  group_by(Country) |>
  mutate(proportion = count / sum(count)) |>
  select(Country, Gender, proportion)

`summarise()` has grouped output by 'Country'. You can override using the
`.groups` argument.

# A tibble: 88 × 3
# Groups:   Country [44]
   Country   Gender proportion
   <chr>     <chr>       <dbl>
 1 Argentina 0           0.482
 2 Argentina 1           0.518
 3 Armenia   0           0.391
 4 Armenia   1           0.609
 5 Australia 0           0.393
 6 Australia 1           0.607
 7 Austria   0           0.453
 8 Austria   1           0.547
 9 Bosnia    0           0.436
10 Bosnia    1           0.564
# ℹ 78 more rows
…
# gender index
mean(zero_countries_data$Gender_Index)

[1] 0.7239844

sd(zero_countries_data$Gender_Index)

[1] 0.05093511

Clean |> 
  group_by(Country) |> 
  summarise(mean = mean(CP_Support, na.rm = TRUE))

# A tibble: 44 × 2
   Country    mean
   <chr>     <dbl>
 1 Argentina  3.38
 2 Armenia    2.32
 3 Australia  4.45
 4 Austria    2.31
 5 Bosnia     3.29
 6 Brazil     4.13
 7 Canada     4.84
 8 Chile      4.25
 9 China      5.52
10 Colombia   3.96
# ℹ 34 more rows

 Clean |>
  group_by(Country, Gender) |>
  summarise(mean_CP_Support = mean(CP_Support, na.rm = TRUE))

`summarise()` has grouped output by 'Country'. You can override using the
`.groups` argument.

# A tibble: 96 × 3
# Groups:   Country [44]
   Country   Gender mean_CP_Support
   <chr>     <chr>            <dbl>
 1 Argentina 0                 3.57
 2 Argentina 1                 3.21
 3 Armenia   0                 2.58
 4 Armenia   1                 2.15
 5 Australia 0                 4.78
 6 Australia 1                 4.25
 7 Australia <NA>              3.22
 8 Austria   0                 2.40
 9 Austria   1                 2.23
10 Bosnia    0                 3.54
# ℹ 86 more rows
…
`summarise()` has grouped output by 'Country'. You can override using the
`.groups` argument.

result <- result |>
  group_by(Country) |>
  summarise(
    mean_male = mean(mean_CP_Support[Gender == 0], na.rm = TRUE),
    mean_female = mean(mean_CP_Support[Gender == 1], na.rm = TRUE),
    diff = mean_male - mean_female
  ) 

arrange(result, diff)

# A tibble: 44 × 4
   Country  mean_male mean_female     diff
   <chr>        <dbl>       <dbl>    <dbl>
 1 Peru          3.84        4.08 -0.239  
 2 Chile         4.16        4.33 -0.173  
 3 Kenya         3.57        3.72 -0.143  
 4 Vietnam       4.12        4.22 -0.104  
 5 Thailand      4.46        4.53 -0.0661 
 6 Latvia        3.46        3.47 -0.00127
 7 Colombia      3.97        3.96  0.00921
 8 Iran          6.92        6.80  0.122  
 9 Turkey        3.36        3.23  0.123  
10 Spain         3.70        3.57  0.134  
# ℹ 34 more rows
…
